%YAML 1.1
%TAG !u! tag:unity3d.com,2011:
--- !u!687078895 &4343727234628468602
SpriteAtlas:
  m_ObjectHideFlags: 0
  m_CorrespondingSourceObject: {fileID: 0}
  m_PrefabInstance: {fileID: 0}
  m_PrefabAsset: {fileID: 0}
  m_Name: atlas2
  m_EditorData:
    serializedVersion: 2
    textureSettings:
      serializedVersion: 2
      anisoLevel: 1
      compressionQuality: 50
      maxTextureSize: 2048
      textureCompression: 0
      filterMode: 1
      generateMipMaps: 0
      readable: 0
      crunchedCompression: 0
      sRGB: 1
    platformSettings:
    - serializedVersion: 3
      m_BuildTarget: DefaultTexturePlatform
      m_MaxTextureSize: 8192
      m_ResizeAlgorithm: 0
      m_TextureFormat: -1
      m_TextureCompression: 1
      m_CompressionQuality: 50
      m_CrunchedCompression: 1
      m_AllowsAlphaSplitting: 0
      m_Overridden: 0
      m_AndroidETC2FallbackOverride: 0
      m_ForceMaximumCompressionQuality_BC6H_BC7: 0
    packingSettings:
      serializedVersion: 2
      padding: 4
      blockOffset: 1
      allowAlphaSplitting: 0
      enableRotation: 0
      enableTightPacking: 0
    variantMultiplier: 1
    packables:
    - {fileID: 102900000, guid: 16b300427fcc52e4db8b7a02582141fb, type: 3}
    totalSpriteSurfaceArea: 13573846
    bindAsDefault: 1
  m_MasterAtlas: {fileID: 0}
  m_PackedSprites:
  - {fileID: 21300000, guid: 68ecb780110eaa6409b731484ae8f280, type: 3}
  - {fileID: 21300000, guid: a28a6fb053a6ca34e8a2659bcce1a2cf, type: 3}
  - {fileID: 21300000, guid: 4701bb6113edc0f428ef4c4d6a8db872, type: 3}
  - {fileID: 21300000, guid: 7ec30b712da063941bfef4c6909c1f98, type: 3}
  - {fileID: 21300000, guid: 84857cc1846e73349a5150daed5fe3a7, type: 3}
  - {fileID: 21300000, guid: 692ebdd148cc89640a4df2ea4b636968, type: 3}
  - {fileID: 21300000, guid: 92fb18f1279424045894c62e3007c8e1, type: 3}
  - {fileID: 21300000, guid: f6ccf112270a10743a540991e4675125, type: 3}
  - {fileID: 21300000, guid: 6264d062f2d7ba645a230960e06c8ae3, type: 3}
  - {fileID: 21300000, guid: 47bc36c21795817459a00ea92455d843, type: 3}
  - {fileID: 21300000, guid: 1c0eb623630efdf46998a5184c0c964c, type: 3}
  - {fileID: 21300000, guid: e310fa434f226124faa096900bdbce1a, type: 3}
  - {fileID: 21300000, guid: 60e917a36e2454a47a531de0c755bea2, type: 3}
  - {fileID: 21300000, guid: 4d346ad3be6866948a481f3a615e44ae, type: 3}
  - {fileID: 21300000, guid: 6e7610049fdcdcc449c013ad2686ed50, type: 3}
  - {fileID: 21300000, guid: 770bc934f36e0a7459ec81e11fe54c77, type: 3}
  - {fileID: 21300000, guid: a60086d42f5ee134eb9ec1dbea062870, type: 3}
  - {fileID: 21300000, guid: dc7d1b35b9d95b94180b31c3d5a24f9a, type: 3}
  - {fileID: 21300000, guid: 28414265e6ecd0e438e50bf4ecf29fe6, type: 3}
  - {fileID: 21300000, guid: f049bea570fe80047af5c5d21b0e6d81, type: 3}
  - {fileID: 21300000, guid: 8d8c2016b3a94ec4c840f4c8fc93f7cd, type: 3}
  - {fileID: 21300000, guid: 80125e16a527be84b81daaa3bbb02341, type: 3}
  - {fileID: 21300000, guid: 3e82fc56b43648946af435bd75019577, type: 3}
  - {fileID: 21300000, guid: cbdd2996a08ff0041bdd95e3679dcc4d, type: 3}
  - {fileID: 21300000, guid: 1e96b7c60cb9208448ebab97a877cf7a, type: 3}
  - {fileID: 21300000, guid: 23660de6f18238649bb28eae8dc0c6ca, type: 3}
  - {fileID: 21300000, guid: 9f667d07b54b90c478ecf399985401df, type: 3}
  - {fileID: 21300000, guid: 3995c5578075d1b40a8f09306fa8104a, type: 3}
  - {fileID: 21300000, guid: 1fd22318d35e6ba428b536f27d71e237, type: 3}
  - {fileID: 21300000, guid: 5e37fbc8ff76c7d4f831adab2a8dbab8, type: 3}
  - {fileID: 21300000, guid: e3f9b6d8d32eb624fab82e2f33a81b80, type: 3}
  - {fileID: 21300000, guid: 201c0069c71250045bcefc387231cadb, type: 3}
  - {fileID: 21300000, guid: 5e39b779a220a47438bf415aaf02d580, type: 3}
  - {fileID: 21300000, guid: 14983c79b9430c544bf7759d90516192, type: 3}
  - {fileID: 21300000, guid: fa27a91a2835ad0418fad4500b2e3029, type: 3}
  - {fileID: 21300000, guid: ee3e255a494b02d44b4fd80e18cd2ed5, type: 3}
  - {fileID: 21300000, guid: 7a93479a1c65f7f4a9257083b8a5830a, type: 3}
  - {fileID: 21300000, guid: f6cd56bbd184df3459e8b98217e4670d, type: 3}
  - {fileID: 21300000, guid: b6a9472c7ff92db4b9e22911a70151a4, type: 3}
  - {fileID: 21300000, guid: d642b69cb3e9f1745b7fe5f2512ea622, type: 3}
  - {fileID: 21300000, guid: 700b2c2d6f94da541a9d0168ccf7b4ab, type: 3}
  - {fileID: 21300000, guid: c2f4955d0635d9c42a6189ffa777120b, type: 3}
  - {fileID: 21300000, guid: eac3216dbbb1f2545a2cc53df3ad9ab0, type: 3}
  - {fileID: 21300000, guid: 39e0d51e14b061b4f95b23528b0544ec, type: 3}
  - {fileID: 21300000, guid: f01cabde5163a884183c4122b5ac6cb9, type: 3}
  - {fileID: 21300000, guid: 016ac4ee180b2ec498796c0d17ea7048, type: 3}
  - {fileID: 21300000, guid: 57d8705f8dc983142ba44104aa12ce8f, type: 3}
  - {fileID: 21300000, guid: dc83527fa9b3ee844816b973252fe40e, type: 3}
  - {fileID: 21300000, guid: 00a2e57f80958d949bc492d949dccb5a, type: 3}
  - {fileID: 21300000, guid: ebed4d9f35eaab74f87c5b12c2fabe81, type: 3}
  - {fileID: 21300000, guid: e99909bf37f9ca642858263bc47e1234, type: 3}
  - {fileID: 21300000, guid: cefd5bef6f8fbe84582fc6c902f56f41, type: 3}
  m_PackedSpriteNamesToIndex:
  - skeleton-Moving_5
  - skeleton-Moving_7
  - skeleton-Moving_3
  - skeleton-Moving_25
  - skeleton-Destroyed_4
  - skeleton-Moving_2
  - skeleton-Destroyed_23
  - skeleton-Moving_24
  - skeleton-Destroyed_13
  - skeleton-Moving_13
  - skeleton-Moving_21
  - skeleton-Destroyed_24
  - skeleton-Destroyed_1
  - skeleton-Destroyed_21
  - skeleton-Moving_15
  - skeleton-Destroyed_25
  - skeleton-Destroyed_5
  - skeleton-Destroyed_14
  - skeleton-Destroyed_9
  - skeleton-Moving_18
  - skeleton-Destroyed_8
  - skeleton-Moving_11
  - skeleton-Destroyed_11
  - skeleton-Moving_6
  - skeleton-Moving_14
  - skeleton-Destroyed_2
  - skeleton-Moving_19
  - skeleton-Destroyed_10
  - skeleton-Moving_1
  - skeleton-Moving_23
  - skeleton-Destroyed_19
  - skeleton-Moving_22
  - skeleton-Destroyed_12
  - skeleton-Destroyed_6
  - skeleton-Destroyed_20
  - skeleton-Moving_16
  - skeleton-Destroyed_16
  - skeleton-Destroyed_3
  - skeleton-Moving_9
  - skeleton-Destroyed_18
  - skeleton-Moving_0
  - skeleton-Destroyed_15
  - skeleton-Moving_8
  - skeleton-Destroyed_17
  - skeleton-Moving_17
  - skeleton-Moving_12
  - skeleton-Moving_10
  - skeleton-Destroyed_0
  - skeleton-Destroyed_7
  - skeleton-Destroyed_22
  - skeleton-Moving_20
  - skeleton-Moving_4
  m_Tag: atlas2
  m_IsVariant: 0
