%YAML 1.1
%TAG !u! tag:unity3d.com,2011:
--- !u!74 &7400000
AnimationClip:
  m_ObjectHideFlags: 0
  m_CorrespondingSourceObject: {fileID: 0}
  m_PrefabInstance: {fileID: 0}
  m_PrefabAsset: {fileID: 0}
  m_Name: IdlePlane10
  serializedVersion: 6
  m_Legacy: 0
  m_Compressed: 0
  m_UseHighQualityCurve: 1
  m_RotationCurves: []
  m_CompressedRotationCurves: []
  m_EulerCurves: []
  m_PositionCurves: []
  m_ScaleCurves: []
  m_FloatCurves: []
  m_PPtrCurves:
  - curve:
    - time: 0
      value: {fileID: 21300000, guid: a2cb5667ba944b1438b61ff906541bc4, type: 3}
    - time: 0.06666667
      value: {fileID: 21300000, guid: 5f81db2b209d38841976c66648a79184, type: 3}
    - time: 0.13333334
      value: {fileID: 21300000, guid: 215ca59146ab096459d87b07fbb59810, type: 3}
    - time: 0.18333334
      value: {fileID: 21300000, guid: 31b5621b86eb58643be19454278c75d4, type: 3}
    - time: 0.25
      value: {fileID: 21300000, guid: aa2acafc26f80434390ac9f5f71055bb, type: 3}
    - time: 0.31666666
      value: {fileID: 21300000, guid: 6eab510bb1d872241acdd444dc6c38ae, type: 3}
    - time: 0.38333333
      value: {fileID: 21300000, guid: 6bc22c94be0351e459851ff97656f279, type: 3}
    - time: 0.43333334
      value: {fileID: 21300000, guid: 72c18efa76c447c4d86b8c0e5d553be7, type: 3}
    - time: 0.5
      value: {fileID: 21300000, guid: 9b7a8020e9fb7d64bb7f20ab17cda337, type: 3}
    - time: 0.56666666
      value: {fileID: 21300000, guid: e122d26e4843f1a4fbc98d8328729f80, type: 3}
    - time: 0.6333333
      value: {fileID: 21300000, guid: 0426a71fd84bf044eaeb05541324f35f, type: 3}
    - time: 0.68333334
      value: {fileID: 21300000, guid: 03d320f9feceb694899566993b297841, type: 3}
    - time: 0.75
      value: {fileID: 21300000, guid: b8e0ba3e2fab2934787c93170f506cb2, type: 3}
    - time: 0.81666666
      value: {fileID: 21300000, guid: a8abd11639184b14d9b10da023bd79bc, type: 3}
    attribute: m_Sprite
    path: 
    classID: 212
    script: {fileID: 0}
  m_SampleRate: 60
  m_WrapMode: 0
  m_Bounds:
    m_Center: {x: 0, y: 0, z: 0}
    m_Extent: {x: 0, y: 0, z: 0}
  m_ClipBindingConstant:
    genericBindings:
    - serializedVersion: 2
      path: 0
      attribute: 0
      script: {fileID: 0}
      typeID: 212
      customType: 23
      isPPtrCurve: 1
    pptrCurveMapping:
    - {fileID: 21300000, guid: a2cb5667ba944b1438b61ff906541bc4, type: 3}
    - {fileID: 21300000, guid: 5f81db2b209d38841976c66648a79184, type: 3}
    - {fileID: 21300000, guid: 215ca59146ab096459d87b07fbb59810, type: 3}
    - {fileID: 21300000, guid: 31b5621b86eb58643be19454278c75d4, type: 3}
    - {fileID: 21300000, guid: aa2acafc26f80434390ac9f5f71055bb, type: 3}
    - {fileID: 21300000, guid: 6eab510bb1d872241acdd444dc6c38ae, type: 3}
    - {fileID: 21300000, guid: 6bc22c94be0351e459851ff97656f279, type: 3}
    - {fileID: 21300000, guid: 72c18efa76c447c4d86b8c0e5d553be7, type: 3}
    - {fileID: 21300000, guid: 9b7a8020e9fb7d64bb7f20ab17cda337, type: 3}
    - {fileID: 21300000, guid: e122d26e4843f1a4fbc98d8328729f80, type: 3}
    - {fileID: 21300000, guid: 0426a71fd84bf044eaeb05541324f35f, type: 3}
    - {fileID: 21300000, guid: 03d320f9feceb694899566993b297841, type: 3}
    - {fileID: 21300000, guid: b8e0ba3e2fab2934787c93170f506cb2, type: 3}
    - {fileID: 21300000, guid: a8abd11639184b14d9b10da023bd79bc, type: 3}
  m_AnimationClipSettings:
    serializedVersion: 2
    m_AdditiveReferencePoseClip: {fileID: 0}
    m_AdditiveReferencePoseTime: 0
    m_StartTime: 0
    m_StopTime: 0.8333333
    m_OrientationOffsetY: 0
    m_Level: 0
    m_CycleOffset: 0
    m_HasAdditiveReferencePose: 0
    m_LoopTime: 1
    m_LoopBlend: 0
    m_LoopBlendOrientation: 0
    m_LoopBlendPositionY: 0
    m_LoopBlendPositionXZ: 0
    m_KeepOriginalOrientation: 0
    m_KeepOriginalPositionY: 1
    m_KeepOriginalPositionXZ: 0
    m_HeightFromFeet: 0
    m_Mirror: 0
  m_EditorCurves: []
  m_EulerEditorCurves: []
  m_HasGenericRootTransform: 0
  m_HasMotionFloatCurves: 0
  m_Events: []
