%YAML 1.1
%TAG !u! tag:unity3d.com,2011:
--- !u!74 &7400000
AnimationClip:
  m_ObjectHideFlags: 0
  m_CorrespondingSourceObject: {fileID: 0}
  m_PrefabInstance: {fileID: 0}
  m_PrefabAsset: {fileID: 0}
  m_Name: Plane1Idle
  serializedVersion: 6
  m_Legacy: 0
  m_Compressed: 0
  m_UseHighQualityCurve: 1
  m_RotationCurves: []
  m_CompressedRotationCurves: []
  m_EulerCurves: []
  m_PositionCurves: []
  m_ScaleCurves: []
  m_FloatCurves: []
  m_PPtrCurves:
  - curve:
    - time: 0
      value: {fileID: 21300000, guid: 50a2f716a2940f547bfb8267479f7d8b, type: 3}
    - time: 0.06666667
      value: {fileID: 21300000, guid: 7d26d1ac9b3234147a558fd3e051907e, type: 3}
    - time: 0.13333334
      value: {fileID: 21300000, guid: 68b0c5771dc2ec24f8ee7b45a8183083, type: 3}
    - time: 0.2
      value: {fileID: 21300000, guid: 4d28be678b9e90244bfadd26181a72f8, type: 3}
    - time: 0.25
      value: {fileID: 21300000, guid: 567ccd92a5c6e0945843fe7b015cbce2, type: 3}
    - time: 0.31666666
      value: {fileID: 21300000, guid: 68a1eec08a434ec4297dfd7016570ab0, type: 3}
    - time: 0.38333333
      value: {fileID: 21300000, guid: 4379651f54a29e3478c0c85d720051be, type: 3}
    - time: 0.45
      value: {fileID: 21300000, guid: 90872c37ab02a5344a198ab203ac31ea, type: 3}
    - time: 0.51666665
      value: {fileID: 21300000, guid: ea75ae7298ed554489aee5c337136337, type: 3}
    - time: 0.5833333
      value: {fileID: 21300000, guid: 91d8b68dcf513aa4583c3ad8ca3c1e2d, type: 3}
    - time: 0.6333333
      value: {fileID: 21300000, guid: 7320f7aef48dfd54a885f56b48793885, type: 3}
    - time: 0.7
      value: {fileID: 21300000, guid: 4e379fa2308681e40b2ff86de121dd29, type: 3}
    - time: 0.76666665
      value: {fileID: 21300000, guid: 04c04e628ff2c3e439aba1b3946347dd, type: 3}
    - time: 0.8333333
      value: {fileID: 21300000, guid: 9eaec0984233d924e902b0448e8d6556, type: 3}
    attribute: m_Sprite
    path: 
    classID: 212
    script: {fileID: 0}
  m_SampleRate: 60
  m_WrapMode: 0
  m_Bounds:
    m_Center: {x: 0, y: 0, z: 0}
    m_Extent: {x: 0, y: 0, z: 0}
  m_ClipBindingConstant:
    genericBindings:
    - serializedVersion: 2
      path: 0
      attribute: 0
      script: {fileID: 0}
      typeID: 212
      customType: 23
      isPPtrCurve: 1
    pptrCurveMapping:
    - {fileID: 21300000, guid: 50a2f716a2940f547bfb8267479f7d8b, type: 3}
    - {fileID: 21300000, guid: 7d26d1ac9b3234147a558fd3e051907e, type: 3}
    - {fileID: 21300000, guid: 68b0c5771dc2ec24f8ee7b45a8183083, type: 3}
    - {fileID: 21300000, guid: 4d28be678b9e90244bfadd26181a72f8, type: 3}
    - {fileID: 21300000, guid: 567ccd92a5c6e0945843fe7b015cbce2, type: 3}
    - {fileID: 21300000, guid: 68a1eec08a434ec4297dfd7016570ab0, type: 3}
    - {fileID: 21300000, guid: 4379651f54a29e3478c0c85d720051be, type: 3}
    - {fileID: 21300000, guid: 90872c37ab02a5344a198ab203ac31ea, type: 3}
    - {fileID: 21300000, guid: ea75ae7298ed554489aee5c337136337, type: 3}
    - {fileID: 21300000, guid: 91d8b68dcf513aa4583c3ad8ca3c1e2d, type: 3}
    - {fileID: 21300000, guid: 7320f7aef48dfd54a885f56b48793885, type: 3}
    - {fileID: 21300000, guid: 4e379fa2308681e40b2ff86de121dd29, type: 3}
    - {fileID: 21300000, guid: 04c04e628ff2c3e439aba1b3946347dd, type: 3}
    - {fileID: 21300000, guid: 9eaec0984233d924e902b0448e8d6556, type: 3}
  m_AnimationClipSettings:
    serializedVersion: 2
    m_AdditiveReferencePoseClip: {fileID: 0}
    m_AdditiveReferencePoseTime: 0
    m_StartTime: 0
    m_StopTime: 0.84999996
    m_OrientationOffsetY: 0
    m_Level: 0
    m_CycleOffset: 0
    m_HasAdditiveReferencePose: 0
    m_LoopTime: 1
    m_LoopBlend: 0
    m_LoopBlendOrientation: 0
    m_LoopBlendPositionY: 0
    m_LoopBlendPositionXZ: 0
    m_KeepOriginalOrientation: 0
    m_KeepOriginalPositionY: 1
    m_KeepOriginalPositionXZ: 0
    m_HeightFromFeet: 0
    m_Mirror: 0
  m_EditorCurves: []
  m_EulerEditorCurves: []
  m_HasGenericRootTransform: 0
  m_HasMotionFloatCurves: 0
  m_Events: []
