%YAML 1.1
%TAG !u! tag:unity3d.com,2011:
--- !u!74 &7400000
AnimationClip:
  m_ObjectHideFlags: 0
  m_CorrespondingSourceObject: {fileID: 0}
  m_PrefabInstance: {fileID: 0}
  m_PrefabAsset: {fileID: 0}
  m_Name: IdlePlane2
  serializedVersion: 6
  m_Legacy: 0
  m_Compressed: 0
  m_UseHighQualityCurve: 1
  m_RotationCurves: []
  m_CompressedRotationCurves: []
  m_EulerCurves: []
  m_PositionCurves: []
  m_ScaleCurves: []
  m_FloatCurves: []
  m_PPtrCurves:
  - curve:
    - time: 0
      value: {fileID: 21300000, guid: d02731ee52a6cc4498caebc26116b901, type: 3}
    - time: 0.06666667
      value: {fileID: 21300000, guid: 633a0e70ef864754892f181c24da159b, type: 3}
    - time: 0.13333334
      value: {fileID: 21300000, guid: 1261e705d3e3a074f9f6c72684ab1f77, type: 3}
    - time: 0.2
      value: {fileID: 21300000, guid: 5670eb26eec10e94da4aa8e7a8bfabab, type: 3}
    - time: 0.25
      value: {fileID: 21300000, guid: bd9476b41aae9904fafa6a0d04331d0d, type: 3}
    - time: 0.31666666
      value: {fileID: 21300000, guid: 8c38e3db7a8c435448cf8556f790ec17, type: 3}
    - time: 0.38333333
      value: {fileID: 21300000, guid: 2bc5ff66579e4b44faa696dcbc642916, type: 3}
    - time: 0.45
      value: {fileID: 21300000, guid: 3941ea107d8dbb34dababfdbb8f6c949, type: 3}
    - time: 0.51666665
      value: {fileID: 21300000, guid: 6f9408f191733f94d81ab18af3af8c1c, type: 3}
    - time: 0.5833333
      value: {fileID: 21300000, guid: fa25c2978253ee846b84b230cce111c7, type: 3}
    - time: 0.6333333
      value: {fileID: 21300000, guid: 44c23049efb022748a230c15a14231bd, type: 3}
    - time: 0.7
      value: {fileID: 21300000, guid: 09880d8fd17ad5b48a3fe65400d68279, type: 3}
    - time: 0.76666665
      value: {fileID: 21300000, guid: a220f163ecedcc9439b73c25b9d0e5c0, type: 3}
    - time: 0.8333333
      value: {fileID: 21300000, guid: 1bc409d87bebd2a4b9f190ca3f5a56bb, type: 3}
    attribute: m_Sprite
    path: 
    classID: 114
    script: {fileID: 11500000, guid: fe87c0e1cc204ed48ad3b37840f39efc, type: 3}
  m_SampleRate: 60
  m_WrapMode: 0
  m_Bounds:
    m_Center: {x: 0, y: 0, z: 0}
    m_Extent: {x: 0, y: 0, z: 0}
  m_ClipBindingConstant:
    genericBindings:
    - serializedVersion: 2
      path: 0
      attribute: 2015549526
      script: {fileID: 11500000, guid: fe87c0e1cc204ed48ad3b37840f39efc, type: 3}
      typeID: 114
      customType: 0
      isPPtrCurve: 1
    pptrCurveMapping:
    - {fileID: 21300000, guid: d02731ee52a6cc4498caebc26116b901, type: 3}
    - {fileID: 21300000, guid: 633a0e70ef864754892f181c24da159b, type: 3}
    - {fileID: 21300000, guid: 1261e705d3e3a074f9f6c72684ab1f77, type: 3}
    - {fileID: 21300000, guid: 5670eb26eec10e94da4aa8e7a8bfabab, type: 3}
    - {fileID: 21300000, guid: bd9476b41aae9904fafa6a0d04331d0d, type: 3}
    - {fileID: 21300000, guid: 8c38e3db7a8c435448cf8556f790ec17, type: 3}
    - {fileID: 21300000, guid: 2bc5ff66579e4b44faa696dcbc642916, type: 3}
    - {fileID: 21300000, guid: 3941ea107d8dbb34dababfdbb8f6c949, type: 3}
    - {fileID: 21300000, guid: 6f9408f191733f94d81ab18af3af8c1c, type: 3}
    - {fileID: 21300000, guid: fa25c2978253ee846b84b230cce111c7, type: 3}
    - {fileID: 21300000, guid: 44c23049efb022748a230c15a14231bd, type: 3}
    - {fileID: 21300000, guid: 09880d8fd17ad5b48a3fe65400d68279, type: 3}
    - {fileID: 21300000, guid: a220f163ecedcc9439b73c25b9d0e5c0, type: 3}
    - {fileID: 21300000, guid: 1bc409d87bebd2a4b9f190ca3f5a56bb, type: 3}
  m_AnimationClipSettings:
    serializedVersion: 2
    m_AdditiveReferencePoseClip: {fileID: 0}
    m_AdditiveReferencePoseTime: 0
    m_StartTime: 0
    m_StopTime: 0.84999996
    m_OrientationOffsetY: 0
    m_Level: 0
    m_CycleOffset: 0
    m_HasAdditiveReferencePose: 0
    m_LoopTime: 1
    m_LoopBlend: 0
    m_LoopBlendOrientation: 0
    m_LoopBlendPositionY: 0
    m_LoopBlendPositionXZ: 0
    m_KeepOriginalOrientation: 0
    m_KeepOriginalPositionY: 1
    m_KeepOriginalPositionXZ: 0
    m_HeightFromFeet: 0
    m_Mirror: 0
  m_EditorCurves: []
  m_EulerEditorCurves: []
  m_HasGenericRootTransform: 0
  m_HasMotionFloatCurves: 0
  m_Events: []
