%YAML 1.1
%TAG !u! tag:unity3d.com,2011:
--- !u!74 &7400000
AnimationClip:
  m_ObjectHideFlags: 0
  m_CorrespondingSourceObject: {fileID: 0}
  m_PrefabInstance: {fileID: 0}
  m_PrefabAsset: {fileID: 0}
  m_Name: IdlePlane5
  serializedVersion: 6
  m_Legacy: 0
  m_Compressed: 0
  m_UseHighQualityCurve: 1
  m_RotationCurves: []
  m_CompressedRotationCurves: []
  m_EulerCurves: []
  m_PositionCurves: []
  m_ScaleCurves: []
  m_FloatCurves: []
  m_PPtrCurves:
  - curve:
    - time: 0
      value: {fileID: 21300000, guid: 80313424aaf23cb40a6dc1ee7ec24ec5, type: 3}
    - time: 0.06666667
      value: {fileID: 21300000, guid: 80313424aaf23cb40a6dc1ee7ec24ec5, type: 3}
    - time: 0.11666667
      value: {fileID: 21300000, guid: b3a363c50f9ab3d4988293e3d74987b4, type: 3}
    - time: 0.18333334
      value: {fileID: 21300000, guid: 47a485c15ca6c714dbc90f9be5d05a7d, type: 3}
    - time: 0.23333333
      value: {fileID: 21300000, guid: 46967d810e6fba545a5c646a33018fdc, type: 3}
    - time: 0.3
      value: {fileID: 21300000, guid: 58ff424daa0c18c4cabe04a637233318, type: 3}
    - time: 0.35
      value: {fileID: 21300000, guid: 351a48ac850d85e41af57f00c2422ec7, type: 3}
    - time: 0.41666666
      value: {fileID: 21300000, guid: 821719c03019ed04c92ab430ba514e40, type: 3}
    - time: 0.48333332
      value: {fileID: 21300000, guid: 0bf0fd951dfc4e148977df8685eb5b8c, type: 3}
    - time: 0.53333336
      value: {fileID: 21300000, guid: ab27786fb440b154aaa74a6f7e070766, type: 3}
    - time: 0.6
      value: {fileID: 21300000, guid: ab91730d342d04e488d3cfcb12478d7a, type: 3}
    - time: 0.65
      value: {fileID: 21300000, guid: 64160ec7bb8aabf4da08de2d8c9b1859, type: 3}
    - time: 0.71666664
      value: {fileID: 21300000, guid: 5ebce4284cddb9242903a673f2455cb4, type: 3}
    - time: 0.76666665
      value: {fileID: 21300000, guid: 34d3cb9d9eb0c6c4eac6c0fa6e8ae1e6, type: 3}
    - time: 0.8333333
      value: {fileID: 21300000, guid: 5c66dd50e5c8c244b9b3a6d9749b26dc, type: 3}
    attribute: m_Sprite
    path: 
    classID: 114
    script: {fileID: 11500000, guid: fe87c0e1cc204ed48ad3b37840f39efc, type: 3}
  m_SampleRate: 60
  m_WrapMode: 0
  m_Bounds:
    m_Center: {x: 0, y: 0, z: 0}
    m_Extent: {x: 0, y: 0, z: 0}
  m_ClipBindingConstant:
    genericBindings:
    - serializedVersion: 2
      path: 0
      attribute: 2015549526
      script: {fileID: 11500000, guid: fe87c0e1cc204ed48ad3b37840f39efc, type: 3}
      typeID: 114
      customType: 0
      isPPtrCurve: 1
    pptrCurveMapping:
    - {fileID: 21300000, guid: 80313424aaf23cb40a6dc1ee7ec24ec5, type: 3}
    - {fileID: 21300000, guid: 80313424aaf23cb40a6dc1ee7ec24ec5, type: 3}
    - {fileID: 21300000, guid: b3a363c50f9ab3d4988293e3d74987b4, type: 3}
    - {fileID: 21300000, guid: 47a485c15ca6c714dbc90f9be5d05a7d, type: 3}
    - {fileID: 21300000, guid: 46967d810e6fba545a5c646a33018fdc, type: 3}
    - {fileID: 21300000, guid: 58ff424daa0c18c4cabe04a637233318, type: 3}
    - {fileID: 21300000, guid: 351a48ac850d85e41af57f00c2422ec7, type: 3}
    - {fileID: 21300000, guid: 821719c03019ed04c92ab430ba514e40, type: 3}
    - {fileID: 21300000, guid: 0bf0fd951dfc4e148977df8685eb5b8c, type: 3}
    - {fileID: 21300000, guid: ab27786fb440b154aaa74a6f7e070766, type: 3}
    - {fileID: 21300000, guid: ab91730d342d04e488d3cfcb12478d7a, type: 3}
    - {fileID: 21300000, guid: 64160ec7bb8aabf4da08de2d8c9b1859, type: 3}
    - {fileID: 21300000, guid: 5ebce4284cddb9242903a673f2455cb4, type: 3}
    - {fileID: 21300000, guid: 34d3cb9d9eb0c6c4eac6c0fa6e8ae1e6, type: 3}
    - {fileID: 21300000, guid: 5c66dd50e5c8c244b9b3a6d9749b26dc, type: 3}
  m_AnimationClipSettings:
    serializedVersion: 2
    m_AdditiveReferencePoseClip: {fileID: 0}
    m_AdditiveReferencePoseTime: 0
    m_StartTime: 0
    m_StopTime: 0.84999996
    m_OrientationOffsetY: 0
    m_Level: 0
    m_CycleOffset: 0
    m_HasAdditiveReferencePose: 0
    m_LoopTime: 1
    m_LoopBlend: 0
    m_LoopBlendOrientation: 0
    m_LoopBlendPositionY: 0
    m_LoopBlendPositionXZ: 0
    m_KeepOriginalOrientation: 0
    m_KeepOriginalPositionY: 1
    m_KeepOriginalPositionXZ: 0
    m_HeightFromFeet: 0
    m_Mirror: 0
  m_EditorCurves: []
  m_EulerEditorCurves: []
  m_HasGenericRootTransform: 0
  m_HasMotionFloatCurves: 0
  m_Events: []
