%YAML 1.1
%TAG !u! tag:unity3d.com,2011:
--- !u!74 &7400000
AnimationClip:
  m_ObjectHideFlags: 0
  m_CorrespondingSourceObject: {fileID: 0}
  m_PrefabInstance: {fileID: 0}
  m_PrefabAsset: {fileID: 0}
  m_Name: DestroyedPlane4
  serializedVersion: 6
  m_Legacy: 0
  m_Compressed: 0
  m_UseHighQualityCurve: 1
  m_RotationCurves: []
  m_CompressedRotationCurves: []
  m_EulerCurves: []
  m_PositionCurves: []
  m_ScaleCurves: []
  m_FloatCurves: []
  m_PPtrCurves:
  - curve:
    - time: 0
      value: {fileID: 21300000, guid: e93053091fec41f4983b91bd1c3ac2f5, type: 3}
    - time: 0.016666668
      value: {fileID: 21300000, guid: adf4ce88575f56b4fb2722af74612a8f, type: 3}
    - time: 0.05
      value: {fileID: 21300000, guid: adf4ce88575f56b4fb2722af74612a8f, type: 3}
    - time: 0.06666667
      value: {fileID: 21300000, guid: 2e9611ef8151feb43842760ca0523fb0, type: 3}
    - time: 0.083333336
      value: {fileID: 21300000, guid: 36bcad962570bca4dbbf70fdf20c464f, type: 3}
    - time: 0.11666667
      value: {fileID: 21300000, guid: b4cb5ba2ec8ef284d9f051506ab2ff12, type: 3}
    - time: 0.13333334
      value: {fileID: 21300000, guid: b114f73aaa9bc4c47817397f5f0281d1, type: 3}
    - time: 0.16666667
      value: {fileID: 21300000, guid: 7f80db62a1af4f747aee2bce49370d2b, type: 3}
    - time: 0.18333334
      value: {fileID: 21300000, guid: 8f2390b175fe0104fb21b77b330ed59d, type: 3}
    - time: 0.2
      value: {fileID: 21300000, guid: 40327bbb19f79614d9a4b7dc2a54d181, type: 3}
    - time: 0.23333333
      value: {fileID: 21300000, guid: 066aad76a4d1f0d44900ad6f3a092e2c, type: 3}
    - time: 0.25
      value: {fileID: 21300000, guid: b2874e2a14fc1e24e9f722826d0a6cf0, type: 3}
    - time: 0.26666668
      value: {fileID: 21300000, guid: f4fe1c0035b00d64b8f10de8fe9d2716, type: 3}
    - time: 0.3
      value: {fileID: 21300000, guid: 54053f28a784a4f42806735f55ade007, type: 3}
    - time: 0.31666666
      value: {fileID: 21300000, guid: 85d68a302c0fbe54daf3ccf1a34122e9, type: 3}
    - time: 0.33333334
      value: {fileID: 21300000, guid: bd8d53e23476add43843898bcd650fbd, type: 3}
    - time: 0.36666667
      value: {fileID: 21300000, guid: 01c37821eb639f8499dca7f2396b6dd2, type: 3}
    - time: 0.38333333
      value: {fileID: 21300000, guid: 9bb1f7be5da774b4c9367476c29719df, type: 3}
    - time: 0.41666666
      value: {fileID: 21300000, guid: 7268d2909876f4c4aa2b9c3b191a0d75, type: 3}
    - time: 0.43333334
      value: {fileID: 21300000, guid: 8932e30ae24fa00418d92fd8226ad9ad, type: 3}
    - time: 0.45
      value: {fileID: 21300000, guid: 046089b1b8dfe8249a1d98525a9485fa, type: 3}
    - time: 0.48333332
      value: {fileID: 21300000, guid: 2c86448dce8b8ed48b9797c5719b3249, type: 3}
    - time: 0.5
      value: {fileID: 21300000, guid: fac7321764bc5444cb6fe4949aa75769, type: 3}
    attribute: m_Sprite
    path: 
    classID: 212
    script: {fileID: 0}
  m_SampleRate: 60
  m_WrapMode: 0
  m_Bounds:
    m_Center: {x: 0, y: 0, z: 0}
    m_Extent: {x: 0, y: 0, z: 0}
  m_ClipBindingConstant:
    genericBindings:
    - serializedVersion: 2
      path: 0
      attribute: 0
      script: {fileID: 0}
      typeID: 212
      customType: 23
      isPPtrCurve: 1
    pptrCurveMapping:
    - {fileID: 21300000, guid: e93053091fec41f4983b91bd1c3ac2f5, type: 3}
    - {fileID: 21300000, guid: adf4ce88575f56b4fb2722af74612a8f, type: 3}
    - {fileID: 21300000, guid: adf4ce88575f56b4fb2722af74612a8f, type: 3}
    - {fileID: 21300000, guid: 2e9611ef8151feb43842760ca0523fb0, type: 3}
    - {fileID: 21300000, guid: 36bcad962570bca4dbbf70fdf20c464f, type: 3}
    - {fileID: 21300000, guid: b4cb5ba2ec8ef284d9f051506ab2ff12, type: 3}
    - {fileID: 21300000, guid: b114f73aaa9bc4c47817397f5f0281d1, type: 3}
    - {fileID: 21300000, guid: 7f80db62a1af4f747aee2bce49370d2b, type: 3}
    - {fileID: 21300000, guid: 8f2390b175fe0104fb21b77b330ed59d, type: 3}
    - {fileID: 21300000, guid: 40327bbb19f79614d9a4b7dc2a54d181, type: 3}
    - {fileID: 21300000, guid: 066aad76a4d1f0d44900ad6f3a092e2c, type: 3}
    - {fileID: 21300000, guid: b2874e2a14fc1e24e9f722826d0a6cf0, type: 3}
    - {fileID: 21300000, guid: f4fe1c0035b00d64b8f10de8fe9d2716, type: 3}
    - {fileID: 21300000, guid: 54053f28a784a4f42806735f55ade007, type: 3}
    - {fileID: 21300000, guid: 85d68a302c0fbe54daf3ccf1a34122e9, type: 3}
    - {fileID: 21300000, guid: bd8d53e23476add43843898bcd650fbd, type: 3}
    - {fileID: 21300000, guid: 01c37821eb639f8499dca7f2396b6dd2, type: 3}
    - {fileID: 21300000, guid: 9bb1f7be5da774b4c9367476c29719df, type: 3}
    - {fileID: 21300000, guid: 7268d2909876f4c4aa2b9c3b191a0d75, type: 3}
    - {fileID: 21300000, guid: 8932e30ae24fa00418d92fd8226ad9ad, type: 3}
    - {fileID: 21300000, guid: 046089b1b8dfe8249a1d98525a9485fa, type: 3}
    - {fileID: 21300000, guid: 2c86448dce8b8ed48b9797c5719b3249, type: 3}
    - {fileID: 21300000, guid: fac7321764bc5444cb6fe4949aa75769, type: 3}
  m_AnimationClipSettings:
    serializedVersion: 2
    m_AdditiveReferencePoseClip: {fileID: 0}
    m_AdditiveReferencePoseTime: 0
    m_StartTime: 0
    m_StopTime: 0.51666665
    m_OrientationOffsetY: 0
    m_Level: 0
    m_CycleOffset: 0
    m_HasAdditiveReferencePose: 0
    m_LoopTime: 0
    m_LoopBlend: 0
    m_LoopBlendOrientation: 0
    m_LoopBlendPositionY: 0
    m_LoopBlendPositionXZ: 0
    m_KeepOriginalOrientation: 0
    m_KeepOriginalPositionY: 1
    m_KeepOriginalPositionXZ: 0
    m_HeightFromFeet: 0
    m_Mirror: 0
  m_EditorCurves: []
  m_EulerEditorCurves: []
  m_HasGenericRootTransform: 0
  m_HasMotionFloatCurves: 0
  m_Events: []
